{
  "version": "v4",
  "repo": "borisyankov/DefinitelyTyped",
  "ref": "master",
  "path": "typings",
  "bundle": "typings/tsd.d.ts",
  "installed": {
    "jquery/jquery.d.ts": {
      "commit": "30cfe7dedb3ae990a369cda93995d69b169465bd"
    },
    "angularjs/angular.d.ts": {
      "commit": "30cfe7dedb3ae990a369cda93995d69b169465bd"
    },
    "jasmine/jasmine.d.ts": {
      "commit": "30cfe7dedb3ae990a369cda93995d69b169465bd"
    },
    "requirejs/require.d.ts": {
      "commit": "30cfe7dedb3ae990a369cda93995d69b169465bd"
    },
    "bootstrap/bootstrap.d.ts": {
      "commit": "6ee44e03b86604f1188020a365281890140e4b9b"
    },
    "moment/moment.d.ts": {
      "commit": "6ee44e03b86604f1188020a365281890140e4b9b"
    },
    "lodash/lodash.d.ts": {
      "commit": "6ee44e03b86604f1188020a365281890140e4b9b"
    }
  }
}
